-- Merging decision tree log ---
manifest
ADDED from /Users/edgararana/Documents/jetpack-android/featurePool/resources/src/main/AndroidManifest.xml:2:1-5:12
INJECTED from /Users/edgararana/Documents/jetpack-android/featurePool/resources/src/main/AndroidManifest.xml:2:1-5:12
INJECTED from /Users/edgararana/Documents/jetpack-android/featurePool/resources/src/main/AndroidManifest.xml:2:1-5:12
	package
		ADDED from /Users/edgararana/Documents/jetpack-android/featurePool/resources/src/main/AndroidManifest.xml:3:5-35
		INJECTED from /Users/edgararana/Documents/jetpack-android/featurePool/resources/src/main/AndroidManifest.xml
		INJECTED from /Users/edgararana/Documents/jetpack-android/featurePool/resources/src/main/AndroidManifest.xml
	xmlns:android
		ADDED from /Users/edgararana/Documents/jetpack-android/featurePool/resources/src/main/AndroidManifest.xml:2:11-69
uses-sdk
INJECTED from /Users/edgararana/Documents/jetpack-android/featurePool/resources/src/main/AndroidManifest.xml reason: use-sdk injection requested
INJECTED from /Users/edgararana/Documents/jetpack-android/featurePool/resources/src/main/AndroidManifest.xml
INJECTED from /Users/edgararana/Documents/jetpack-android/featurePool/resources/src/main/AndroidManifest.xml
INJECTED from /Users/edgararana/Documents/jetpack-android/featurePool/resources/src/main/AndroidManifest.xml
INJECTED from /Users/edgararana/Documents/jetpack-android/featurePool/resources/src/main/AndroidManifest.xml
	android:targetSdkVersion
		INJECTED from /Users/edgararana/Documents/jetpack-android/featurePool/resources/src/main/AndroidManifest.xml
		ADDED from /Users/edgararana/Documents/jetpack-android/featurePool/resources/src/main/AndroidManifest.xml
		INJECTED from /Users/edgararana/Documents/jetpack-android/featurePool/resources/src/main/AndroidManifest.xml
	android:minSdkVersion
		INJECTED from /Users/edgararana/Documents/jetpack-android/featurePool/resources/src/main/AndroidManifest.xml
		ADDED from /Users/edgararana/Documents/jetpack-android/featurePool/resources/src/main/AndroidManifest.xml
		INJECTED from /Users/edgararana/Documents/jetpack-android/featurePool/resources/src/main/AndroidManifest.xml
